…
merapikan data frame

epl_table

## # A tibble: 21 x 12
##    ``    ``     Team   P     W     D     L     F     A     GD    Pts   Form     
##    <chr> <chr>  <chr>  <chr> <chr> <chr> <chr> <chr> <chr> <chr> <chr> <chr>    
##  1 1     team … Man C… 38    27    5     6     83    32    51    86    WWon 2 -…
##  2 2     team … Man U… 38    21    11    6     73    44    29    74    WWon 3 -…
##  3 3     team … Liver… 38    20    9     9     68    42    26    69    WWon 2 -…
##  4 4     team … Chels… 38    19    10    9     58    36    22    67    WWon 2 -…
##  5 5     team … Leice… 38    20    6     12    68    50    18    66    DDrew 1 …
##  6 6     team … West … 38    19    8     11    62    47    15    65    WWon 2 -…
##  7 7     team … Totte… 38    18    8     12    68    45    23    62    WWon 4 -…
##  8 8     team … Arsen… 38    18    7     13    55    39    16    61    WWon 2 -…
##  9 9     team … Leeds  38    18    5     15    62    54    8     59    LLost 0 …
## 10 10    team … Evert… 38    17    8     13    47    48    -1    59    WWon 1 -…
## # … with 11 more rows
…
