…
corona_table

## # A tibble: 238 x 22
##      `#` `Country,Other` TotalCases  NewCases   TotalDeaths NewDeaths
##    <int> <chr>           <chr>       <chr>      <chr>       <chr>    
##  1    NA "North America" 39,990,729  "+12,328"  902,902     "+335"   
##  2    NA "Asia"          52,599,120  "+150,106" 714,757     "+3,241" 
##  3    NA "South America" 29,740,174  "+46,161"  918,116     "+1,095" 
##  4    NA "Europe"        46,925,697  "+30,394"  1,079,695   "+844"   
##  5    NA "Africa"        4,971,202   "+6,339"   132,795     "+130"   
##  6    NA "Oceania"       69,495      "+130"     1,254       ""       
##  7    NA ""              721         ""         15          ""       
##  8    NA "World"         174,297,138 "+245,458" 3,749,534   "+5,645" 
##  9     1 "USA"           34,221,250  "+6,980"   612,588     "+204"   
## 10     2 "India"         28,996,949  "+87,345"  351,344     "+2,115" 
>>>>>>> eb3293f8f8be590a32295a766bb38c1e1c6a7df5
## # … with 228 more rows, and 16 more variables: TotalRecovered <chr>,
## #   NewRecovered <chr>, ActiveCases <chr>, Serious,Critical <chr>,
## #   Tot\U00a0Cases/1M pop <chr>, Deaths/1M pop <chr>, TotalTests <chr>,
## #   Tests/1M pop <chr>, Population <chr>, Continent <chr>,
## #   1 Caseevery X ppl <chr>, 1 Deathevery X ppl <chr>, 1 Testevery X ppl <int>,
…
corona_table[1] <- list(NULL)
corona_table

## # A tibble: 238 x 21
##    `Country,Other` TotalCases  NewCases   TotalDeaths NewDeaths TotalRecovered
##    <chr>           <chr>       <chr>      <chr>       <chr>     <chr>         
##  1 "North America" 39,990,729  "+12,328"  902,902     "+335"    32,985,538    
##  2 "Asia"          52,599,120  "+150,106" 714,757     "+3,241"  49,310,770    
##  3 "South America" 29,740,174  "+46,161"  918,116     "+1,095"  26,805,869    
##  4 "Europe"        46,925,697  "+30,394"  1,079,695   "+844"    44,097,783    
##  5 "Africa"        4,971,202   "+6,339"   132,795     "+130"    4,472,765     
##  6 "Oceania"       69,495      "+130"     1,254       ""        66,923        
##  7 ""              721         ""         15          ""        706           
##  8 "World"         174,297,138 "+245,458" 3,749,534   "+5,645"  157,740,354   
##  9 "USA"           34,221,250  "+6,980"   612,588     "+204"    28,169,121    
## 10 "India"         28,996,949  "+87,345"  351,344     "+2,115"  27,336,799    
>>>>>>> eb3293f8f8be590a32295a766bb38c1e1c6a7df5
## # … with 228 more rows, and 15 more variables: NewRecovered <chr>,
## #   ActiveCases <chr>, Serious,Critical <chr>, Tot\U00a0Cases/1M pop <chr>,
## #   Deaths/1M pop <chr>, TotalTests <chr>, Tests/1M pop <chr>,
## #   Population <chr>, Continent <chr>, 1 Caseevery X ppl <chr>,
<<<<<<< HEAD
## #   1 Deathevery X ppl <chr>, 1 Testevery X ppl <int>, New Cases/1M pop <dbl>,
=======
## #   1 Deathevery X ppl <chr>, 1 Testevery X ppl <int>, New Cases/1M pop <chr>,
>>>>>>> eb3293f8f8be590a32295a766bb38c1e1c6a7df5
## #   New Deaths/1M pop <dbl>, Active Cases/1M pop <chr>

corona_table <- corona_table[-1:-8,]

print(corona_table)

## # A tibble: 230 x 21
<<<<<<< HEAD
##    `Country,Other` TotalCases NewCases TotalDeaths NewDeaths TotalRecovered
##    <chr>           <chr>      <chr>    <chr>       <chr>     <chr>         
##  1 USA             34,227,534 "+297"   612,710     "+9"      28,177,659    
##  2 India           28,996,949 ""       351,344     ""        27,341,462    
##  3 Brazil          16,985,812 ""       474,614     ""        15,408,401    
##  4 France          5,713,917  ""       110,062     ""        5,425,197     
##  5 Turkey          5,293,627  ""       48,255      ""        5,167,350     
##  6 Russia          5,145,843  "+9,977" 124,496     "+379"    4,752,085     
##  7 UK              4,522,476  ""       127,841     ""        4,277,098     
##  8 Italy           4,233,698  ""       126,588     ""        3,918,657     
##  9 Argentina       3,977,634  ""       81,946      ""        3,560,148     
## 10 Germany         3,710,341  ""       89,965      ""        3,549,900     
=======
##    `Country,Other` TotalCases NewCases  TotalDeaths NewDeaths TotalRecovered
##    <chr>           <chr>      <chr>     <chr>       <chr>     <chr>         
##  1 USA             34,221,250 "+6,980"  612,588     "+204"    28,169,121    
##  2 India           28,996,949 "+87,345" 351,344     "+2,115"  27,336,799    
##  3 Brazil          16,984,218 "+37,156" 474,414     "+919"    15,342,286    
##  4 France          5,713,917  "+1,164"  110,062     "+64"     5,425,261     
##  5 Turkey          5,293,627  "+5,647"  48,255      "+91"     5,167,350     
##  6 Russia          5,135,866  "+9,429"  124,117     "+330"    4,743,202     
##  7 UK              4,522,476  "+5,683"  127,841     "+1"      4,277,098     
##  8 Italy           4,233,698  "+1,273"  126,588     "+65"     3,918,657     
##  9 Argentina       3,955,439  ""        81,214      ""        3,529,033     
## 10 Germany         3,710,341  "+1,562"  89,965      "+114"    3,542,700     
>>>>>>> eb3293f8f8be590a32295a766bb38c1e1c6a7df5
## # … with 220 more rows, and 15 more variables: NewRecovered <chr>,
## #   ActiveCases <chr>, Serious,Critical <chr>, Tot\U00a0Cases/1M pop <chr>,
## #   Deaths/1M pop <chr>, TotalTests <chr>, Tests/1M pop <chr>,
## #   Population <chr>, Continent <chr>, 1 Caseevery X ppl <chr>,
…
